…
``` r
full_model <- linear_reg()|>
  set_engine("lm")|>
  fit(win_rate_pct ~ Learns.Numberf + Yes.Nof + Selects.Characterf + Specific.Characterf + Learns.Characterf + Droisoningf + Executionf + Causes.Deathf + On.Deathf + Prevents.Deathf + Storytellerf + Publicf + Nom.Votingf + Once.First.Timef + Setupf + Madnessf + Alignmentf + Win.Lossf + Changes.Characterf + Can.Revivef + Positioningf, data = data_all)
tidy(full_model)
```

    ## # A tibble: 22 × 5
    ##    term                estimate std.error statistic  p.value
    ##    <chr>                  <dbl>     <dbl>     <dbl>    <dbl>
    ##  1 (Intercept)           55.3        1.11   49.9    1.84e-88
    ##  2 Learns.Numberf         1.89       2.20    0.861  3.91e- 1
    ##  3 Yes.Nof                1.78       2.82    0.633  5.28e- 1
    ##  4 Selects.Characterf     1.11       2.15    0.515  6.07e- 1
    ##  5 Specific.Characterf   -0.167      2.19   -0.0763 9.39e- 1
    ##  6 Learns.Characterf      2.18       1.83    1.20   2.34e- 1
    ##  7 Droisoningf           -0.804      1.44   -0.557  5.79e- 1
    ##  8 Executionf             1.05       1.51    0.695  4.88e- 1
    ##  9 Causes.Deathf         -0.429      1.20   -0.358  7.21e- 1
    ## 10 On.Deathf             -0.592      1.56   -0.381  7.04e- 1
    ## # ℹ 12 more rows
…
